<?xml version="1.0" encoding="UTF-8" standalone="no"?>
<!-- Created with Inkscape (http://www.inkscape.org/) -->

<svg
   inkscape:export-ydpi="96"
   inkscape:export-xdpi="96"
   inkscape:export-filename="Template.png"
   width="192"
   height="152"
   id="svg11300"
   sodipodi:version="0.32"
   inkscape:version="1.2.1 (9c6d41e410, 2022-07-14)"
   sodipodi:docname="com.feaneron.Spiel.Source.svg"
   inkscape:output_extension="org.inkscape.output.svg.inkscape"
   version="1.0"
   style="display:inline;enable-background:new"
   viewBox="0 0 192 152"
   xmlns:inkscape="http://www.inkscape.org/namespaces/inkscape"
   xmlns:sodipodi="http://sodipodi.sourceforge.net/DTD/sodipodi-0.dtd"
   xmlns:xlink="http://www.w3.org/1999/xlink"
   xmlns="http://www.w3.org/2000/svg"
   xmlns:svg="http://www.w3.org/2000/svg"
   xmlns:rdf="http://www.w3.org/1999/02/22-rdf-syntax-ns#"
   xmlns:cc="http://creativecommons.org/ns#"
   xmlns:dc="http://purl.org/dc/elements/1.1/">
  <title
     id="title4162">Adwaita Icon Template</title>
  <defs
     id="defs3">
    <linearGradient
       inkscape:collect="always"
       id="linearGradient3138">
      <stop
         style="stop-color:#9a9996;stop-opacity:1;"
         offset="0"
         id="stop3134" />
      <stop
         style="stop-color:#cccac7;stop-opacity:1;"
         offset="0.05984785"
         id="stop3146" />
      <stop
         style="stop-color:#838280;stop-opacity:1;"
         offset="0.22187518"
         id="stop3148" />
      <stop
         style="stop-color:#9a9996;stop-opacity:1;"
         offset="0.84550285"
         id="stop3142" />
      <stop
         style="stop-color:#c7c6c3;stop-opacity:1;"
         offset="0.93631887"
         id="stop3144" />
      <stop
         style="stop-color:#9a9996;stop-opacity:1;"
         offset="1"
         id="stop3136" />
    </linearGradient>
    <linearGradient
       inkscape:collect="always"
       id="linearGradient3035">
      <stop
         style="stop-color:#26a269;stop-opacity:1;"
         offset="0"
         id="stop3031" />
      <stop
         style="stop-color:#38ef9b;stop-opacity:1;"
         offset="0.04144264"
         id="stop3130" />
      <stop
         style="stop-color:#26a269;stop-opacity:1;"
         offset="0.09146652"
         id="stop3132" />
      <stop
         style="stop-color:#26a269;stop-opacity:1;"
         offset="0.90437108"
         id="stop3128" />
      <stop
         style="stop-color:#33d78b;stop-opacity:1;"
         offset="0.95280802"
         id="stop3126" />
      <stop
         style="stop-color:#26a269;stop-opacity:1;"
         offset="1"
         id="stop3033" />
    </linearGradient>
    <inkscape:path-effect
       effect="fillet_chamfer"
       id="path-effect555"
       is_visible="true"
       lpeversion="1"
       nodesatellites_param="F,0,0,1,0,0,0,1 @ F,0,0,1,0,6,0,1 @ F,0,0,1,0,0,0,1"
       unit="px"
       method="auto"
       mode="F"
       radius="0"
       chamfer_steps="1"
       flexible="false"
       use_knot_distance="true"
       apply_no_radius="true"
       apply_with_radius="true"
       only_selected="false"
       hide_knots="false" />
    <inkscape:path-effect
       effect="fillet_chamfer"
       id="path-effect551"
       is_visible="true"
       lpeversion="1"
       nodesatellites_param="F,0,0,1,0,2.0000213,0,1 @ F,0,0,1,0,0,0,1 @ F,0,0,1,0,0,0,1 @ F,0,0,1,0,0,0,1 @ F,0,0,1,0,0,0,1 @ F,0,0,1,0,1.9999962,0,1"
       unit="px"
       method="auto"
       mode="F"
       radius="0"
       chamfer_steps="1"
       flexible="false"
       use_knot_distance="true"
       apply_no_radius="true"
       apply_with_radius="true"
       only_selected="false"
       hide_knots="false" />
    <inkscape:path-effect
       effect="fillet_chamfer"
       id="path-effect547"
       is_visible="true"
       lpeversion="1"
       nodesatellites_param="F,0,1,1,0,0,0,1 @ F,0,0,1,0,0,0,1 @ F,0,0,1,0,0,0,1 @ F,0,0,1,0,0,0,1 @ F,0,0,1,0,0,0,1 @ F,0,0,1,0,0,0,1"
       unit="px"
       method="auto"
       mode="F"
       radius="0"
       chamfer_steps="1"
       flexible="false"
       use_knot_distance="true"
       apply_no_radius="true"
       apply_with_radius="true"
       only_selected="false"
       hide_knots="false" />
    <inkscape:path-effect
       effect="fillet_chamfer"
       id="path-effect543"
       is_visible="true"
       lpeversion="1"
       nodesatellites_param="F,0,0,1,0,0,0,1 @ F,0,0,1,0,11,0,1 @ F,0,0,1,0,11,0,1 @ F,0,1,1,0,10.253317,0,1 @ F,0,0,1,0,10.253317,0,1 @ F,0,0,1,0,0,0,1"
       unit="px"
       method="auto"
       mode="F"
       radius="0"
       chamfer_steps="1"
       flexible="false"
       use_knot_distance="true"
       apply_no_radius="true"
       apply_with_radius="true"
       only_selected="false"
       hide_knots="false" />
    <inkscape:path-effect
       effect="fillet_chamfer"
       id="path-effect539"
       is_visible="true"
       lpeversion="1"
       nodesatellites_param="F,0,0,1,0,0,0,1 @ F,0,0,1,0,10,0,1 @ F,0,0,1,0,7,0,1 @ F,0,0,1,0,7,0,1 @ F,0,0,1,0,0,0,1 @ F,0,1,1,0,10,0,1 @ F,0,0,1,0,0,0,1 @ F,0,0,1,0,0,0,1"
       unit="px"
       method="auto"
       mode="F"
       radius="0"
       chamfer_steps="1"
       flexible="false"
       use_knot_distance="true"
       apply_no_radius="true"
       apply_with_radius="true"
       only_selected="false"
       hide_knots="false" />
    <linearGradient
       inkscape:collect="always"
       id="linearGradient17347">
      <stop
         style="stop-color:#b9b8b4;stop-opacity:1;"
         offset="0"
         id="stop17343" />
      <stop
         style="stop-color:#6a6968;stop-opacity:1;"
         offset="0.05789564"
         id="stop17359" />
      <stop
         style="stop-color:#9a9996;stop-opacity:1;"
         offset="0.14625844"
         id="stop17353" />
      <stop
         style="stop-color:#dddcd7;stop-opacity:1;"
         offset="0.44482097"
         id="stop17351" />
      <stop
         style="stop-color:#c5c4c0;stop-opacity:1;"
         offset="0.58487457"
         id="stop17357" />
      <stop
         style="stop-color:#9a9996;stop-opacity:1;"
         offset="0.86264306"
         id="stop17355" />
      <stop
         style="stop-color:#e1e0db;stop-opacity:1;"
         offset="1"
         id="stop17345" />
    </linearGradient>
    <linearGradient
       inkscape:collect="always"
       id="linearGradient16398">
      <stop
         style="stop-color:#63452c;stop-opacity:1;"
         offset="0"
         id="stop16394" />
      <stop
         style="stop-color:#b5835a;stop-opacity:1"
         offset="0.04683498"
         id="stop16406" />
      <stop
         style="stop-color:#63452c;stop-opacity:1;"
         offset="0.11002134"
         id="stop16408" />
      <stop
         style="stop-color:#744f35;stop-opacity:1;"
         offset="0.90693355"
         id="stop16404" />
      <stop
         style="stop-color:#d1925f;stop-opacity:1;"
         offset="0.95105517"
         id="stop16402" />
      <stop
         style="stop-color:#865e3c;stop-opacity:1"
         offset="1"
         id="stop16396" />
    </linearGradient>
    <inkscape:path-effect
       effect="fillet_chamfer"
       id="path-effect12794"
       is_visible="true"
       lpeversion="1"
       nodesatellites_param="F,0,0,1,0,0,0,1 @ F,0,0,1,0,11,0,1 @ F,0,0,1,0,11,0,1 @ F,0,1,1,0,13,0,1 @ F,0,0,1,0,13,0,1 @ F,0,0,1,0,0,0,1"
       unit="px"
       method="auto"
       mode="F"
       radius="0"
       chamfer_steps="1"
       flexible="false"
       use_knot_distance="true"
       apply_no_radius="true"
       apply_with_radius="true"
       only_selected="false"
       hide_knots="false" />
    <inkscape:path-effect
       effect="fillet_chamfer"
       id="path-effect12735"
       is_visible="true"
       lpeversion="1"
       nodesatellites_param="F,0,0,1,0,0,0,1 @ F,0,0,1,0,10,0,1 @ F,0,0,1,0,7,0,1 @ F,0,0,1,0,7,0,1 @ F,0,0,1,0,0,0,1 @ F,0,1,1,0,10,0,1 @ F,0,0,1,0,0,0,1 @ F,0,0,1,0,0,0,1"
       unit="px"
       method="auto"
       mode="F"
       radius="0"
       chamfer_steps="1"
       flexible="false"
       use_knot_distance="true"
       apply_no_radius="true"
       apply_with_radius="true"
       only_selected="false"
       hide_knots="false" />
    <linearGradient
       inkscape:collect="always"
       id="linearGradient5526">
      <stop
         style="stop-color:#b5b3b1;stop-opacity:1;"
         offset="0"
         id="stop5522" />
      <stop
         style="stop-color:#81807f;stop-opacity:1;"
         offset="0.15429737"
         id="stop5532" />
      <stop
         style="stop-color:#dcdbd7;stop-opacity:1;"
         offset="0.74031514"
         id="stop5530" />
      <stop
         style="stop-color:#c0bfbc;stop-opacity:1;"
         offset="1"
         id="stop5524" />
    </linearGradient>
    <linearGradient
       inkscape:collect="always"
       id="linearGradient5429">
      <stop
         style="stop-color:#5e5c64;stop-opacity:1"
         offset="0"
         id="stop5425" />
      <stop
         style="stop-color:#241f31;stop-opacity:1"
         offset="0.25"
         id="stop6364" />
      <stop
         style="stop-color:#7b718d;stop-opacity:1;"
         offset="0.68581331"
         id="stop5520" />
      <stop
         style="stop-color:#3d3846;stop-opacity:1;"
         offset="1"
         id="stop5427" />
    </linearGradient>
    <inkscape:path-effect
       effect="fillet_chamfer"
       id="path-effect4328"
       is_visible="true"
       lpeversion="1"
       nodesatellites_param="F,0,0,1,0,2.0000213,0,1 @ F,0,0,1,0,0,0,1 @ F,0,0,1,0,0,0,1 @ F,0,0,1,0,0,0,1 @ F,0,0,1,0,0,0,1 @ F,0,0,1,0,1.9999962,0,1"
       unit="px"
       method="auto"
       mode="F"
       radius="0"
       chamfer_steps="1"
       flexible="false"
       use_knot_distance="true"
       apply_no_radius="true"
       apply_with_radius="true"
       only_selected="false"
       hide_knots="false" />
    <inkscape:path-effect
       effect="fillet_chamfer"
       id="path-effect3517"
       is_visible="true"
       lpeversion="1"
       nodesatellites_param="F,0,0,1,0,0,0,1 @ F,0,0,1,0,6,0,1 @ F,0,0,1,0,0,0,1"
       unit="px"
       method="auto"
       mode="F"
       radius="0"
       chamfer_steps="1"
       flexible="false"
       use_knot_distance="true"
       apply_no_radius="true"
       apply_with_radius="true"
       only_selected="false"
       hide_knots="false" />
    <inkscape:path-effect
       effect="fillet_chamfer"
       id="path-effect3344"
       is_visible="true"
       lpeversion="1"
       nodesatellites_param="F,0,1,1,0,0,0,1 @ F,0,0,1,0,0,0,1 @ F,0,0,1,0,0,0,1 @ F,0,0,1,0,0,0,1 @ F,0,0,1,0,0,0,1 @ F,0,0,1,0,0,0,1"
       unit="px"
       method="auto"
       mode="F"
       radius="0"
       chamfer_steps="1"
       flexible="false"
       use_knot_distance="true"
       apply_no_radius="true"
       apply_with_radius="true"
       only_selected="false"
       hide_knots="false" />
    <linearGradient
       y2="236"
       x2="96"
       y1="236"
       x1="32"
       gradientTransform="translate(604.81684,170.58641)"
       gradientUnits="userSpaceOnUse"
       id="linearGradient1099"
       xlink:href="#linearGradient1036" />
    <linearGradient
       id="linearGradient1036">
      <stop
         id="stop1032"
         offset="0"
         style="stop-color:#d5d3cf;stop-opacity:1;" />
      <stop
         id="stop1034"
         offset="1"
         style="stop-color:#f6f5f4;stop-opacity:1" />
    </linearGradient>
    <radialGradient
       r="32"
       fy="-76"
       fx="-244"
       cy="-76"
       cx="-244"
       gradientTransform="matrix(0.88333331,0,0,0.88333331,-460.35018,463.11973)"
       gradientUnits="userSpaceOnUse"
       id="radialGradient1103"
       xlink:href="#linearGradient1069" />
    <linearGradient
       id="linearGradient1069">
      <stop
         id="stop1065"
         offset="0"
         style="stop-color:#d5d3cf;stop-opacity:1" />
      <stop
         id="stop1067-1"
         offset="1"
         style="stop-color:#949390;stop-opacity:1" />
    </linearGradient>
    <linearGradient
       gradientUnits="userSpaceOnUse"
       y2="232"
       x2="64"
       y1="262.5"
       x1="64"
       id="linearGradient1027"
       xlink:href="#linearGradient1025"
       gradientTransform="translate(-470.5864,432.81685)" />
    <linearGradient
       id="linearGradient1025">
      <stop
         id="stop1021"
         offset="0"
         style="stop-color:#9a9996;stop-opacity:1" />
      <stop
         id="stop1023"
         offset="1"
         style="stop-color:#77767b;stop-opacity:1" />
    </linearGradient>
    <inkscape:path-effect
       effect="spiro"
       id="path-effect35304-9"
       is_visible="true" />
    <clipPath
       clipPathUnits="userSpaceOnUse"
       id="clipPath1609-7">
      <path
         sodipodi:nodetypes="cccccc"
         inkscape:connector-curvature="0"
         id="path1611-5"
         d="m 252,116 28,-28 v -8 h -36 v 36 z"
         style="fill:#e74747;stroke:none;stroke-width:0.25px;stroke-linecap:butt;stroke-linejoin:miter;stroke-opacity:1" />
    </clipPath>
    <linearGradient
       id="linearGradient1697">
      <stop
         id="stop1685"
         offset="0"
         style="stop-color:#deddda;stop-opacity:1" />
      <stop
         style="stop-color:#eeeeec;stop-opacity:1"
         offset="0.04545455"
         id="stop1687" />
      <stop
         id="stop1689"
         offset="0.09090909"
         style="stop-color:#deddda;stop-opacity:1" />
      <stop
         style="stop-color:#deddda;stop-opacity:1"
         offset="0.90909094"
         id="stop1691" />
      <stop
         id="stop1693"
         offset="0.95454544"
         style="stop-color:#eeeeec;stop-opacity:1" />
      <stop
         id="stop1695"
         offset="1"
         style="stop-color:#c0bfbc;stop-opacity:1" />
    </linearGradient>
    <clipPath
       clipPathUnits="userSpaceOnUse"
       id="clipPath1289">
      <path
         style="display:inline;opacity:1;vector-effect:none;fill:none;fill-opacity:1;stroke:#000000;stroke-width:4;stroke-linecap:round;stroke-linejoin:round;stroke-miterlimit:4;stroke-dasharray:none;stroke-dashoffset:0;stroke-opacity:1;marker:none;marker-start:none;marker-mid:none;marker-end:none;paint-order:normal;enable-background:new"
         d="m 64,-148 h 64 l 64,-64 64,64 h 192 c 17.728,0 32,14.272 32,32 v 288 c 0,17.728 -14.272,32 -32,32 H 256 l -64,-64 -64,64 H 64 C 46.272,204 32,189.728 32,172 v -288 c 0,-17.728 14.408898,-34.19889 32,-32 z"
         id="path1291"
         inkscape:connector-curvature="0"
         sodipodi:nodetypes="scccsssscccssss" />
    </clipPath>
    <linearGradient
       id="paint3_linear-2-6-5"
       x2="1"
       gradientUnits="userSpaceOnUse"
       gradientTransform="matrix(0,6,-12,0,-64,209.99687)">
      <stop
         stop-color="#C01C27"
         id="stop91-0-7-4" />
      <stop
         offset="1"
         stop-color="#E01B24"
         id="stop93-2-5-7" />
    </linearGradient>
    <clipPath
       clipPathUnits="userSpaceOnUse"
       id="clipPath1609">
      <path
         sodipodi:nodetypes="cccccc"
         inkscape:connector-curvature="0"
         id="path1611"
         d="m 252,116 28,-28 v -8 h -36 v 36 z"
         style="fill:#e74747;stroke:none;stroke-width:0.25px;stroke-linecap:butt;stroke-linejoin:miter;stroke-opacity:1" />
    </clipPath>
    <clipPath
       clipPathUnits="userSpaceOnUse"
       id="clipPath5255">
      <rect
         style="fill:#c061cb;fill-opacity:1;stroke:none;stroke-width:3;stroke-linecap:round;stroke-dasharray:none;stroke-opacity:0.130831;stop-color:#000000"
         id="rect5257"
         width="26"
         height="8.2105265"
         x="40"
         y="175.78947"
         rx="4.1052632"
         ry="4.1052632" />
    </clipPath>
    <linearGradient
       inkscape:collect="always"
       xlink:href="#linearGradient5429"
       id="linearGradient5431"
       x1="58"
       y1="184"
       x2="58"
       y2="176"
       gradientUnits="userSpaceOnUse" />
    <linearGradient
       inkscape:collect="always"
       xlink:href="#linearGradient5526"
       id="linearGradient5528"
       x1="48"
       y1="184"
       x2="48"
       y2="176.00261"
       gradientUnits="userSpaceOnUse" />
    <inkscape:path-effect
       effect="fillet_chamfer"
       id="path-effect4328-3"
       is_visible="true"
       lpeversion="1"
       nodesatellites_param="F,0,0,1,0,2.0000213,0,1 @ F,0,0,1,0,0,0,1 @ F,0,0,1,0,0,0,1 @ F,0,0,1,0,0,0,1 @ F,0,0,1,0,0,0,1 @ F,0,0,1,0,1.9999962,0,1"
       unit="px"
       method="auto"
       mode="F"
       radius="0"
       chamfer_steps="1"
       flexible="false"
       use_knot_distance="true"
       apply_no_radius="true"
       apply_with_radius="true"
       only_selected="false"
       hide_knots="false" />
    <inkscape:path-effect
       effect="fillet_chamfer"
       id="path-effect3344-6"
       is_visible="true"
       lpeversion="1"
       nodesatellites_param="F,0,1,1,0,0,0,1 @ F,0,0,1,0,0,0,1 @ F,0,0,1,0,0,0,1 @ F,0,0,1,0,0,0,1 @ F,0,0,1,0,0,0,1 @ F,0,0,1,0,0,0,1"
       unit="px"
       method="auto"
       mode="F"
       radius="0"
       chamfer_steps="1"
       flexible="false"
       use_knot_distance="true"
       apply_no_radius="true"
       apply_with_radius="true"
       only_selected="false"
       hide_knots="false" />
    <clipPath
       clipPathUnits="userSpaceOnUse"
       id="clipPath11559">
      <path
         id="path11561"
         style="display:inline;fill:#9141ac;fill-opacity:1;stroke:none;stroke-width:10.5394;stroke-opacity:0.130831;enable-background:new;stop-color:#000000"
         d="m 20.634766,188 c -4.736419,0 -8.548828,3.81241 -8.548828,8.54883 v 37.46094 c -0.02865,-9e-5 -0.05729,8e-5 -0.08594,0 -1.103722,-0.003 -1.998926,0.88852 -2,1.99218 V 238 c 0,4.73642 3.771398,8 8.507812,8 h 90.89258 C 114.13681,246 118,242.73642 118,238 V 236.00195 236 c -0.001,-1.10365 -0.8961,-1.9998 -2,-2.00195 V 196.54883 C 116,191.81241 112.18759,188 107.45117,188 Z" />
    </clipPath>
    <inkscape:path-effect
       effect="fillet_chamfer"
       id="path-effect12735-9"
       is_visible="true"
       lpeversion="1"
       nodesatellites_param="F,0,0,1,0,0,0,1 @ F,0,0,1,0,10,0,1 @ F,0,0,1,0,7,0,1 @ F,0,0,1,0,7,0,1 @ F,0,0,1,0,0,0,1 @ F,0,1,1,0,10,0,1 @ F,0,0,1,0,0,0,1 @ F,0,0,1,0,0,0,1"
       unit="px"
       method="auto"
       mode="F"
       radius="0"
       chamfer_steps="1"
       flexible="false"
       use_knot_distance="true"
       apply_no_radius="true"
       apply_with_radius="true"
       only_selected="false"
       hide_knots="false" />
    <inkscape:path-effect
       effect="fillet_chamfer"
       id="path-effect12794-1"
       is_visible="true"
       lpeversion="1"
       nodesatellites_param="F,0,0,1,0,0,0,1 @ F,0,0,1,0,11,0,1 @ F,0,0,1,0,11,0,1 @ F,0,1,1,0,10.253317,0,1 @ F,0,0,1,0,10.253317,0,1 @ F,0,0,1,0,0,0,1"
       unit="px"
       method="auto"
       mode="F"
       radius="0"
       chamfer_steps="1"
       flexible="false"
       use_knot_distance="true"
       apply_no_radius="true"
       apply_with_radius="true"
       only_selected="false"
       hide_knots="false" />
    <clipPath
       clipPathUnits="userSpaceOnUse"
       id="clipPath18368">
      <path
         id="path18370"
         style="display:inline;fill:url(#linearGradient18372);fill-opacity:1;stroke-width:3;stroke-linecap:round;stroke-opacity:0.130831;enable-background:new;stop-color:#000000"
         d="m 64,262 c -17.673112,0 -32,5.59644 -32,12.5 v 5 c 0,6.90356 14.326888,12.5 32,12.5 17.673112,0 32,-5.59644 32,-12.5 v -5 C 96,267.59644 81.673112,262 64,262 Z"
         sodipodi:nodetypes="sccsccs" />
    </clipPath>
    <linearGradient
       inkscape:collect="always"
       xlink:href="#linearGradient17347"
       id="linearGradient18372"
       gradientUnits="userSpaceOnUse"
       gradientTransform="matrix(1,0,0,1.25,0,-73)"
       x1="32.073467"
       y1="286.46692"
       x2="95.704384"
       y2="286.46692" />
    <linearGradient
       inkscape:collect="always"
       xlink:href="#linearGradient9907"
       id="linearGradient9909"
       x1="16"
       y1="199"
       x2="28"
       y2="199"
       gradientUnits="userSpaceOnUse"
       gradientTransform="translate(1,7)" />
    <linearGradient
       inkscape:collect="always"
       id="linearGradient9907">
      <stop
         style="stop-color:#9a9996;stop-opacity:1;"
         offset="0"
         id="stop9903" />
      <stop
         style="stop-color:#deddda;stop-opacity:1"
         offset="0.46031687"
         id="stop9911" />
      <stop
         style="stop-color:#77767b;stop-opacity:1"
         offset="1"
         id="stop9905" />
    </linearGradient>
    <linearGradient
       inkscape:collect="always"
       xlink:href="#linearGradient9907"
       id="linearGradient611"
       gradientUnits="userSpaceOnUse"
       gradientTransform="translate(1,7)"
       x1="16"
       y1="199"
       x2="28"
       y2="199" />
    <linearGradient
       inkscape:collect="always"
       xlink:href="#linearGradient5526"
       id="linearGradient613"
       gradientUnits="userSpaceOnUse"
       x1="48"
       y1="184"
       x2="48"
       y2="176.00261" />
    <linearGradient
       inkscape:collect="always"
       xlink:href="#linearGradient5429"
       id="linearGradient615"
       gradientUnits="userSpaceOnUse"
       x1="58"
       y1="184"
       x2="58"
       y2="176" />
    <linearGradient
       inkscape:collect="always"
       xlink:href="#linearGradient16398"
       id="linearGradient617"
       gradientUnits="userSpaceOnUse"
       x1="11.142068"
       y1="243.30782"
       x2="118.77995"
       y2="243.30782" />
    <linearGradient
       inkscape:collect="always"
       xlink:href="#linearGradient17347"
       id="linearGradient619"
       gradientUnits="userSpaceOnUse"
       gradientTransform="matrix(1,0,0,1.25,0,-73)"
       x1="32.073467"
       y1="286.46692"
       x2="95.704384"
       y2="286.46692" />
    <linearGradient
       inkscape:collect="always"
       xlink:href="#linearGradient3035"
       id="linearGradient3037"
       x1="12"
       y1="244"
       x2="118"
       y2="244"
       gradientUnits="userSpaceOnUse" />
    <linearGradient
       inkscape:collect="always"
       xlink:href="#linearGradient3138"
       id="linearGradient3140"
       x1="32"
       y1="292"
       x2="96"
       y2="292"
       gradientUnits="userSpaceOnUse" />
  </defs>
  <sodipodi:namedview
     stroke="#ef2929"
     fill="#f57900"
     id="base"
     pagecolor="#ffffff"
     bordercolor="#666666"
     borderopacity="0.25490196"
     inkscape:pageopacity="0.0"
     inkscape:pageshadow="2"
     inkscape:zoom="2.8284271"
     inkscape:cx="-16.018274"
     inkscape:cy="11.797527"
     inkscape:current-layer="g11480"
     showgrid="true"
     inkscape:grid-bbox="true"
     inkscape:document-units="px"
     inkscape:showpageshadow="false"
     inkscape:window-width="1920"
     inkscape:window-height="1016"
     inkscape:window-x="0"
     inkscape:window-y="27"
     width="400px"
     height="300px"
     inkscape:snap-nodes="true"
     inkscape:snap-bbox="true"
     objecttolerance="7"
     gridtolerance="12"
     guidetolerance="13"
     inkscape:window-maximized="1"
     inkscape:pagecheckerboard="false"
     showguides="false"
     inkscape:guide-bbox="true"
     inkscape:locked="false"
     inkscape:measure-start="0,0"
     inkscape:measure-end="0,0"
     inkscape:object-nodes="true"
     inkscape:bbox-nodes="true"
     inkscape:snap-global="true"
     inkscape:object-paths="true"
     inkscape:snap-intersection-paths="true"
     inkscape:snap-bbox-edge-midpoints="true"
     inkscape:snap-bbox-midpoints="true"
     showborder="true"
     inkscape:snap-center="true"
     inkscape:snap-object-midpoints="true"
     inkscape:snap-midpoints="true"
     inkscape:snap-smooth-nodes="true"
     inkscape:snap-text-baseline="true"
     borderlayer="true"
     inkscape:deskcolor="#d1d1d1">
    <inkscape:grid
       type="xygrid"
       id="grid5883"
       spacingx="2"
       spacingy="2"
       enabled="true"
       visible="true"
       empspacing="4"
       originx="8"
       originy="8" />
    <sodipodi:guide
       position="72,16"
       orientation="0,1"
       id="guide1073"
       inkscape:locked="false"
       inkscape:label=""
       inkscape:color="rgb(0,0,255)" />
    <sodipodi:guide
       position="20,72"
       orientation="1,0"
       id="guide1075"
       inkscape:locked="false"
       inkscape:label=""
       inkscape:color="rgb(0,0,255)" />
    <sodipodi:guide
       position="72,112"
       orientation="0,1"
       id="guide1099"
       inkscape:locked="false"
       inkscape:label=""
       inkscape:color="rgb(0,0,255)" />
    <sodipodi:guide
       position="72,136"
       orientation="0,1"
       id="guide993"
       inkscape:locked="false"
       inkscape:label=""
       inkscape:color="rgb(0,0,255)" />
    <sodipodi:guide
       position="112,72"
       orientation="1,0"
       id="guide995"
       inkscape:locked="false"
       inkscape:label=""
       inkscape:color="rgb(0,0,255)" />
    <sodipodi:guide
       position="8.0000001,72"
       orientation="1,0"
       id="guide867"
       inkscape:locked="false"
       inkscape:label=""
       inkscape:color="rgb(0,0,255)" />
    <sodipodi:guide
       position="128,72"
       orientation="1,0"
       id="guide869"
       inkscape:locked="false"
       inkscape:label=""
       inkscape:color="rgb(0,0,255)" />
    <sodipodi:guide
       position="72,124"
       orientation="0,1"
       id="guide871"
       inkscape:locked="false"
       inkscape:label=""
       inkscape:color="rgb(0,0,255)" />
    <inkscape:grid
       type="xygrid"
       id="grid873"
       spacingx="1"
       spacingy="1"
       empspacing="8"
       color="#000000"
       opacity="0.49019608"
       empcolor="#000000"
       empopacity="0.08627451"
       dotted="true"
       originx="8"
       originy="8" />
    <sodipodi:guide
       position="32,72"
       orientation="1,0"
       id="guide877"
       inkscape:locked="false"
       inkscape:label=""
       inkscape:color="rgb(0,0,255)" />
    <sodipodi:guide
       position="124,72"
       orientation="1,0"
       id="guide879"
       inkscape:locked="false"
       inkscape:label=""
       inkscape:color="rgb(0,0,255)" />
    <sodipodi:guide
       position="72,128"
       orientation="0,1"
       id="guide881"
       inkscape:locked="false"
       inkscape:label=""
       inkscape:color="rgb(0,0,255)" />
    <sodipodi:guide
       position="72,20"
       orientation="0,1"
       id="guide883"
       inkscape:locked="false"
       inkscape:label=""
       inkscape:color="rgb(0,0,255)" />
    <sodipodi:guide
       position="16,72"
       orientation="1,0"
       id="guide885"
       inkscape:locked="false"
       inkscape:label=""
       inkscape:color="rgb(0,0,255)" />
    <sodipodi:guide
       position="136,72"
       orientation="1,0"
       id="guide887"
       inkscape:locked="false"
       inkscape:label=""
       inkscape:color="rgb(0,0,255)" />
    <sodipodi:guide
       position="72,8"
       orientation="0,1"
       id="guide897"
       inkscape:locked="false"
       inkscape:label=""
       inkscape:color="rgb(0,0,255)" />
    <sodipodi:guide
       position="72,32"
       orientation="0,1"
       id="guide899"
       inkscape:locked="false"
       inkscape:label=""
       inkscape:color="rgb(0,0,255)" />
    <sodipodi:guide
       position="264,264"
       orientation="-0.70710678,0.70710678"
       id="guide950"
       inkscape:locked="false"
       inkscape:label=""
       inkscape:color="rgb(0,0,255)" />
    <sodipodi:guide
       position="72,72"
       orientation="0.70710678,0.70710678"
       id="guide952"
       inkscape:locked="false"
       inkscape:label=""
       inkscape:color="rgb(0,0,255)" />
  </sodipodi:namedview>
  <metadata
     id="metadata4">
    <rdf:RDF>
      <cc:Work
         rdf:about="">
        <dc:format>image/svg+xml</dc:format>
        <dc:type
           rdf:resource="http://purl.org/dc/dcmitype/StillImage" />
        <dc:creator>
          <cc:Agent>
            <dc:title>GNOME Design Team</dc:title>
          </cc:Agent>
        </dc:creator>
        <dc:source />
        <cc:license
           rdf:resource="http://creativecommons.org/licenses/by-sa/4.0/" />
        <dc:title>Adwaita Icon Template</dc:title>
        <dc:subject>
          <rdf:Bag />
        </dc:subject>
        <dc:date />
        <dc:rights>
          <cc:Agent>
            <dc:title />
          </cc:Agent>
        </dc:rights>
        <dc:publisher>
          <cc:Agent>
            <dc:title />
          </cc:Agent>
        </dc:publisher>
        <dc:identifier />
        <dc:relation />
        <dc:language />
        <dc:coverage />
        <dc:description />
        <dc:contributor>
          <cc:Agent>
            <dc:title />
          </cc:Agent>
        </dc:contributor>
      </cc:Work>
      <cc:License
         rdf:about="http://creativecommons.org/licenses/by-sa/4.0/">
        <cc:permits
           rdf:resource="http://creativecommons.org/ns#Reproduction" />
        <cc:permits
           rdf:resource="http://creativecommons.org/ns#Distribution" />
        <cc:requires
           rdf:resource="http://creativecommons.org/ns#Notice" />
        <cc:requires
           rdf:resource="http://creativecommons.org/ns#Attribution" />
        <cc:permits
           rdf:resource="http://creativecommons.org/ns#DerivativeWorks" />
        <cc:requires
           rdf:resource="http://creativecommons.org/ns#ShareAlike" />
      </cc:License>
    </rdf:RDF>
  </metadata>
  <g
     id="layer1"
     inkscape:label="App Icon"
     inkscape:groupmode="layer"
     style="display:inline"
     transform="translate(8,-156)">
    <g
       inkscape:groupmode="layer"
       id="layer4"
       inkscape:label="template"
       style="display:inline"
       sodipodi:insensitive="true">
      <rect
         inkscape:label="0"
         y="172"
         x="9.2651362e-08"
         height="128"
         width="128"
         id="hicolor"
         style="display:inline;overflow:visible;visibility:visible;fill:#f0f0f0;fill-opacity:0;fill-rule:nonzero;stroke:none;stroke-width:0.5;marker:none;enable-background:accumulate" />
      <rect
         style="display:inline;overflow:visible;visibility:visible;fill:#f0f0f0;fill-opacity:0;fill-rule:nonzero;stroke:none;stroke-width:0.5;marker:none;enable-background:accumulate"
         id="symbolic"
         width="16"
         height="16"
         x="160"
         y="172"
         inkscape:label="0" />
    </g>
    <g
       inkscape:groupmode="layer"
       id="layer2"
       inkscape:label="baseplate"
       style="display:inline"
       sodipodi:insensitive="true">
      <g
         style="display:inline;fill:#000000;enable-background:new"
         transform="matrix(7.9911709,0,0,8.0036407,-167.7909,-4846.0776)"
         id="g12027"
         inkscape:export-xdpi="12"
         inkscape:export-ydpi="12" />
      <rect
         style="display:inline;overflow:visible;visibility:visible;fill:#f0f0f0;fill-opacity:1;fill-rule:nonzero;stroke:none;stroke-width:0.5;marker:none;enable-background:accumulate"
         id="128"
         width="128"
         height="128"
         x="9.2651362e-08"
         y="172"
         inkscape:label="0" />
      <g
         id="g883"
         style="fill:none;fill-opacity:0.25098;stroke:#a579b3;stroke-opacity:1"
         transform="translate(-24,24)" />
      <g
         id="g900"
         style="fill:none;fill-opacity:0.25098;stroke:#a579b3;stroke-opacity:1"
         transform="translate(-24,24)" />
      <rect
         inkscape:label=""
         y="172"
         x="160"
         height="16"
         width="16"
         id="16"
         style="display:inline;overflow:visible;visibility:visible;fill:#f0f0f0;fill-opacity:1;fill-rule:nonzero;stroke:none;stroke-width:0.5;marker:none;enable-background:accumulate" />
      <text
         xml:space="preserve"
         style="font-style:normal;font-variant:normal;font-weight:bold;font-stretch:normal;font-size:4px;line-height:125%;font-family:Cantarell;-inkscape-font-specification:'Cantarell, Bold';text-align:start;writing-mode:lr-tb;text-anchor:start;display:inline;fill:#000000;fill-opacity:1;stroke:none;stroke-width:0.332649;enable-background:new"
         x="0"
         y="167"
         id="text863"
         inkscape:label="icon-name"><tspan
           style="font-size:4px;stroke-width:0.332649"
           sodipodi:role="line"
           id="tspan861"
           x="0"
           y="167">Hicolor</tspan></text>
      <text
         inkscape:label="icon-name"
         id="text867"
         y="167"
         x="160"
         style="font-style:normal;font-variant:normal;font-weight:bold;font-stretch:normal;font-size:4px;line-height:125%;font-family:Cantarell;-inkscape-font-specification:'Cantarell, Bold';text-align:start;writing-mode:lr-tb;text-anchor:start;display:inline;fill:#000000;fill-opacity:1;stroke:none;stroke-width:0.332649;enable-background:new"
         xml:space="preserve"><tspan
           y="167"
           x="160"
           id="tspan865"
           sodipodi:role="line"
           style="font-size:4px;stroke-width:0.332649">Symbolic</tspan></text>
    </g>
    <g
       inkscape:groupmode="layer"
       id="layer9"
       inkscape:label="icons"
       style="display:inline">
      <rect
         style="fill:url(#linearGradient3140);fill-opacity:1;stroke:none;stroke-linecap:round;stop-color:#000000"
         id="rect1697"
         width="64"
         height="20"
         x="32"
         y="272"
         rx="7.7858772"
         ry="7.7858772" />
      <rect
         style="fill:#dddcd9;fill-opacity:1;stroke:none;stroke-width:1;stroke-linecap:round;stop-color:#000000"
         id="rect673"
         width="64"
         height="22"
         x="32"
         y="268"
         rx="7.7858772"
         ry="8.5644646" />
      <rect
         style="fill:#c0bfbc;fill-opacity:1;stroke:none;stroke-width:3;stroke-linecap:round;stroke-dasharray:none;stroke-opacity:0.130831;stop-color:#000000"
         id="rect3655"
         width="8"
         height="56"
         x="60"
         y="224"
         rx="4"
         ry="4" />
      <rect
         style="fill:#dddcd9;fill-opacity:1;stroke:none;stroke-width:1;stroke-linecap:round;stroke-dasharray:none;stroke-opacity:0.130831;stop-color:#000000"
         id="rect28375"
         width="2.1322479"
         height="30.281244"
         x="61.924538"
         y="246.75052"
         rx="1.066123"
         ry="1.066123" />
      <path
         style="fill:#000000;fill-opacity:0.188469;stroke:none;stroke-width:1px;stroke-linecap:butt;stroke-linejoin:miter;stroke-opacity:1"
         d="m 60,258 v -7 h 8 v 3 c -2,-2 -6.288075,-0.7443 -8,4 z"
         id="path4322"
         sodipodi:nodetypes="ccccc" />
      <g
         id="g11480"
         clip-path="url(#clipPath11559)"
         transform="translate(0,6)">
        <rect
           style="fill:#57e389;fill-opacity:1;stroke:none;stroke-width:10.5394;stroke-opacity:0.130831;stop-color:#000000"
           id="rect722"
           width="103.91395"
           height="53.999992"
           x="12.086052"
           y="190"
           rx="8.5495014"
           ry="8.2441616" />
        <path
           id="rect3290"
           style="fill:url(#linearGradient3037);fill-opacity:1;stroke:none;stroke-width:10.5394;stroke-opacity:0.130831;stop-color:#000000"
           d="m 10,236 v 2 c 0,4.73642 3.771394,8 8.507813,8 H 109.40089 C 114.13731,246 118,242.73642 118,238 v -2 c -35.996658,-0.0805 -72.00346,0.12276 -108,0 z"
           sodipodi:nodetypes="csssscc"
           inkscape:path-effect="#path-effect3344"
           inkscape:original-d="m 10,236 v 2 c 0,4.73642 3.771394,8 8.507813,8 H 109.40089 C 114.13731,246 118,242.73642 118,238 v -2 c -35.996658,-0.0805 -72.00346,0.12276 -108,0 z" />
        <path
           id="path4324"
           style="fill:#2ec27e;fill-opacity:1;stroke:none;stroke-width:10.5394;stroke-opacity:0.130831;stop-color:#000000"
           d="m 10,235.599 c 0,3.78973 3.771394,6.401 8.507813,6.401 h 90.893077 c 4.73642,0 8.59911,-2.61127 8.59911,-6.401 0,-0.8838 -0.89543,-1.60187 -1.99999,-1.6036 -34.663759,-0.0541 -69.33657,0.094 -104.000216,0.009 C 10.895338,234.00122 10,234.7152 10,235.599 Z"
           sodipodi:nodetypes="csssscc"
           inkscape:path-effect="#path-effect4328"
           inkscape:original-d="m 10,233.99875 v 1.60025 c 0,3.78973 3.771394,6.401 8.507813,6.401 H 109.40089 C 114.13731,242 118,239.38873 118,235.599 v -1.60025 c -35.996658,-0.0644 -72.00346,0.0982 -108,0 z" />
        <path
           style="display:inline;fill:#c0bfbc;fill-opacity:1;stroke:none;stroke-width:0.5;stroke-linejoin:round;stroke-miterlimit:4;stroke-dasharray:none;stroke-opacity:1;enable-background:new"
           clip-path="none"
           d="m 44.687794,198 h 17.285699 l 10,10 -0.12787,25.27821 C 71.838017,234.78191 70.620058,236 69.116344,236 H 44.687777 c -1.503713,0 -2.714284,-1.21058 -2.714284,-2.71429 v -32.57142 c 0,-1.50372 1.210571,-2.71429 2.714284,-2.71429 z"
           id="path32475"
           inkscape:connector-curvature="0"
           sodipodi:nodetypes="sccsssssss" />
        <path
           style="display:inline;fill:#deddda;fill-opacity:1;stroke:none;stroke-width:0.5;stroke-linejoin:round;stroke-miterlimit:4;stroke-dasharray:none;stroke-opacity:1;enable-background:new"
           clip-path="none"
           d="m 50.687794,198 h 17.285699 l 10,10 -0.12787,25.27821 C 77.838017,234.78191 76.620058,236 75.116344,236 H 50.687777 c -1.503713,0 -2.714284,-1.21058 -2.714284,-2.71429 v -32.57142 c 0,-1.50372 1.210571,-2.71429 2.714284,-2.71429 z"
           id="path16013"
           inkscape:connector-curvature="0"
           sodipodi:nodetypes="sccsssssss" />
        <path
           style="display:inline;fill:#f6f5f4;fill-opacity:1;stroke:none;stroke-width:0.5;stroke-linejoin:round;stroke-miterlimit:4;stroke-dasharray:none;stroke-opacity:1;enable-background:new"
           clip-path="none"
           d="m 54.7143,198 h 17.285699 l 10,10 -0.12787,25.27821 C 81.864523,234.78191 80.646564,236 79.14285,236 H 54.714283 c -1.503713,0 -2.714284,-1.21058 -2.714284,-2.71429 v -32.57142 c 0,-1.50372 1.210571,-2.71429 2.714284,-2.71429 z"
           id="path32473"
           inkscape:connector-curvature="0"
           sodipodi:nodetypes="sccsssssss" />
        <path
           style="display:inline;fill:#deddda;fill-opacity:1;stroke:none;stroke-width:0.5;stroke-linejoin:round;stroke-miterlimit:4;stroke-dasharray:none;stroke-opacity:1;enable-background:new"
           clip-path="none"
           d="m 56.7143,198 h 17.285699 l 10,10 -0.12787,25.27821 C 83.864523,234.78191 82.646564,236 81.14285,236 H 56.714283 c -1.503713,0 -2.714284,-1.21058 -2.714284,-2.71429 v -32.57142 c 0,-1.50372 1.210571,-2.71429 2.714284,-2.71429 z"
           id="rect2069-0"
           inkscape:connector-curvature="0"
           sodipodi:nodetypes="sccsssssss" />
        <g
           id="g31309"
           transform="matrix(0.08482141,0,0,0.08482141,48.924908,203.81027)"
           style="display:inline;stroke-width:11.7894;enable-background:new">
          <path
             style="display:inline;fill:#f6f5f4;fill-opacity:1;stroke:none;stroke-width:5.89474;stroke-linejoin:round;stroke-miterlimit:4;stroke-dasharray:none;stroke-opacity:1;enable-background:new"
             clip-path="none"
             d="m 115.41181,-68.5 203.78933,-4e-5 117.89477,117.894762 -1.50752,298.016888 C 435.49871,365.13938 421.13961,379.5 403.41161,379.5 h -288 c -17.727996,0 -31.999996,-14.272 -31.999996,-32 v -384 c 0,-17.728 14.272,-32 31.999996,-32 z"
             id="rect2069"
             inkscape:connector-curvature="0"
             sodipodi:nodetypes="sccsssssss" />
          <path
             inkscape:connector-curvature="0"
             style="display:inline;vector-effect:none;fill:#deddda;fill-opacity:1;stroke:none;stroke-width:5.89474;stroke-linecap:butt;stroke-linejoin:round;stroke-miterlimit:4;stroke-dasharray:none;stroke-dashoffset:0;stroke-opacity:1;enable-background:new"
             d="m 319.20114,-68.50004 v 86.677347 c 0,17.461536 13.98671,31.217415 31.1557,31.217415 h 86.73907 z"
             id="rect26812"
             sodipodi:nodetypes="csccc" />
          <g
             transform="matrix(1.2196012,0,0,1.2409973,-2072.945,-2446.2508)"
             id="g23524"
             style="display:inline;stroke-width:2.39574;enable-background:new">
            <rect
               style="display:inline;opacity:1;fill:#d5d3cf;fill-opacity:1;stroke:none;stroke-width:2.39574;stroke-linejoin:round;stroke-miterlimit:4;stroke-dasharray:none;stroke-opacity:1;enable-background:new"
               id="rect1172"
               width="9.8271961"
               height="152"
               x="1816"
               y="2068" />
            <rect
               y="-2009.75"
               x="2210.5334"
               height="193.75038"
               width="9.4664125"
               id="rect1174"
               style="display:inline;opacity:1;fill:#d5d3cf;fill-opacity:1;stroke:none;stroke-width:2.39575;stroke-linejoin:round;stroke-miterlimit:4;stroke-dasharray:none;stroke-opacity:1;enable-background:new"
               transform="rotate(90)" />
            <rect
               y="2124"
               x="1845.4169"
               height="76.999992"
               width="28.999784"
               id="rect1176"
               style="display:inline;opacity:1;fill:#50db81;fill-opacity:1;stroke:none;stroke-width:2.39574;stroke-linejoin:round;stroke-miterlimit:4;stroke-dasharray:none;stroke-opacity:1;enable-background:new" />
            <rect
               style="display:inline;opacity:1;fill:#8f5aa0;fill-opacity:1;stroke:none;stroke-width:2.39574;stroke-linejoin:round;stroke-miterlimit:4;stroke-dasharray:none;stroke-opacity:1;enable-background:new"
               id="rect1178"
               width="29.000046"
               height="48"
               x="1884.0834"
               y="2153" />
            <rect
               y="2087"
               x="1922.75"
               height="114.00002"
               width="28.999939"
               id="rect1180"
               style="display:inline;opacity:1;fill:#fb8c14;fill-opacity:1;stroke:none;stroke-width:2.39574;stroke-linejoin:round;stroke-miterlimit:4;stroke-dasharray:none;stroke-opacity:1;enable-background:new" />
            <rect
               y="2106"
               x="1961.4166"
               height="95.000015"
               width="29.046146"
               id="rect1182"
               style="display:inline;opacity:1;fill:#e01b24;fill-opacity:1;stroke:none;stroke-width:2.39574;stroke-linejoin:round;stroke-miterlimit:4;stroke-dasharray:none;stroke-opacity:1;enable-background:new" />
          </g>
        </g>
        <path
           style="fill:none;stroke:#8ff0a4;stroke-width:2;stroke-linecap:round;stroke-linejoin:miter;stroke-dasharray:none;stroke-opacity:1"
           d="M 14.050557,235.06069 H 113.99455"
           id="path15536" />
      </g>
      <path
         id="rect34205"
         style="font-variation-settings:normal;display:inline;fill:#241f31;fill-opacity:1;stroke:none;stroke-width:1;stroke-linecap:round;stroke-linejoin:miter;stroke-miterlimit:4;stroke-dasharray:none;stroke-dashoffset:0;stroke-opacity:1;enable-background:new;stop-color:#000000"
         d="M 162 174 C 160.892 174 160 174.892 160 176 L 160 181 C 160 182.108 160.892 183 162 183 L 174 183 C 175.108 183 176 182.108 176 181 L 176 176 C 176 174.892 175.108 174 174 174 L 162 174 z M 166 176 L 168 176 L 170 178.01367 L 170 182 L 166 182 L 166 176 z " />
      <g
         id="g27441"
         transform="translate(0,2)">
        <ellipse
           style="display:inline;opacity:0.811384;mix-blend-mode:normal;fill:url(#linearGradient9909);fill-opacity:1;stroke:none;stroke-width:8;stroke-opacity:0.130831;enable-background:new;stop-color:#000000"
           id="ellipse5144"
           cx="23"
           cy="203"
           rx="6"
           ry="4" />
        <ellipse
           style="display:inline;opacity:0.811384;mix-blend-mode:normal;fill:#deddda;fill-opacity:1;stroke:none;stroke-width:8;stroke-opacity:0.130831;enable-background:new;stop-color:#000000"
           id="path3398"
           cx="23"
           cy="202"
           rx="6"
           ry="4" />
        <path
           style="fill:none;stroke:#c0bfbc;stroke-width:2;stroke-linecap:round;stroke-linejoin:miter;stroke-dasharray:none;stroke-opacity:1"
           d="M 41,181 H 29 a 6,6 135 0 0 -6,6 v 15.05451"
           id="path3515"
           inkscape:path-effect="#path-effect3517"
           inkscape:original-d="M 41,181 H 23 v 21.05451"
           sodipodi:nodetypes="ccc" />
        <g
           id="g5253"
           clip-path="url(#clipPath5255)"
           transform="translate(0,2.2105255)">
          <rect
             style="fill:url(#linearGradient5528);fill-opacity:1;stroke:none;stroke-width:2;stroke-linecap:round;stroke-dasharray:none;stroke-opacity:0.130831;stop-color:#000000"
             id="rect5198"
             width="29"
             height="14"
             x="39"
             y="173"
             rx="0"
             ry="0" />
          <rect
             style="fill:url(#linearGradient5431);fill-opacity:1;stroke:none;stroke-width:2;stroke-linecap:round;stroke-dasharray:none;stroke-opacity:0.130831;stop-color:#000000"
             id="rect5311"
             width="16"
             height="13"
             x="52"
             y="174" />
          <path
             id="path8097"
             style="fill:#ffffff;fill-opacity:0.184517;stroke-width:2;stroke-linecap:round;stroke-opacity:0.130831;stop-color:#000000"
             d="m 63,178 c 0.554,0 1,0.446 1,1 v 5 c 0,0.554 -0.446,1 -1,1 -0.554,0 -1,-0.446 -1,-1 v -5 c 0,-0.554 0.446,-1 1,-1 z m -3,0 c 0.554,0 1,0.446 1,1 v 5 c 0,0.554 -0.446,1 -1,1 -0.554,0 -1,-0.446 -1,-1 v -5 c 0,-0.554 0.446,-1 1,-1 z m -3,0 c 0.554,0 1,0.446 1,1 v 5 c 0,0.554 -0.446,1 -1,1 -0.554,0 -1,-0.446 -1,-1 v -5 c 0,-0.554 0.446,-1 1,-1 z m -3,0 c 0.554,0 1,0.446 1,1 v 5 c 0,0.554 -0.446,1 -1,1 -0.554,0 -1,-0.446 -1,-1 v -5 c 0,-0.554 0.446,-1 1,-1 z" />
          <path
             id="rect7255"
             style="stroke-width:2;stroke-linecap:round;stroke-opacity:0.130831;stop-color:#000000"
             d="m 63,179 c 0.554,0 1,0.446 1,1 v 5 c 0,0.554 -0.446,1 -1,1 -0.554,0 -1,-0.446 -1,-1 v -5 c 0,-0.554 0.446,-1 1,-1 z m -3,0 c 0.554,0 1,0.446 1,1 v 5 c 0,0.554 -0.446,1 -1,1 -0.554,0 -1,-0.446 -1,-1 v -5 c 0,-0.554 0.446,-1 1,-1 z m -3,0 c 0.554,0 1,0.446 1,1 v 5 c 0,0.554 -0.446,1 -1,1 -0.554,0 -1,-0.446 -1,-1 v -5 c 0,-0.554 0.446,-1 1,-1 z m -3,0 c 0.554,0 1,0.446 1,1 v 5 c 0,0.554 -0.446,1 -1,1 -0.554,0 -1,-0.446 -1,-1 v -5 c 0,-0.554 0.446,-1 1,-1 z" />
        </g>
      </g>
      <rect
         style="font-variation-settings:normal;opacity:1;fill:#241f31;fill-opacity:1;stroke:none;stroke-width:1;stroke-linecap:round;stroke-linejoin:miter;stroke-miterlimit:4;stroke-dasharray:none;stroke-dashoffset:0;stroke-opacity:1;stop-color:#000000;stop-opacity:1"
         id="rect34442"
         width="2"
         height="5"
         x="167"
         y="182"
         rx="0"
         ry="0" />
      <rect
         style="font-variation-settings:normal;opacity:1;fill:#241f31;fill-opacity:1;stroke:none;stroke-width:0.999999;stroke-linecap:round;stroke-linejoin:miter;stroke-miterlimit:4;stroke-dasharray:none;stroke-dashoffset:0;stroke-opacity:1;stop-color:#000000;stop-opacity:1"
         id="rect34444"
         width="8"
         height="3"
         x="164"
         y="185"
         rx="1.5"
         ry="1.5" />
      <rect
         style="font-variation-settings:normal;opacity:1;fill:#241f31;fill-opacity:1;stroke:none;stroke-width:1;stroke-linecap:round;stroke-linejoin:miter;stroke-miterlimit:4;stroke-dasharray:none;stroke-dashoffset:0;stroke-opacity:1;stop-color:#000000;stop-opacity:1"
         id="rect35507"
         width="16"
         height="2"
         x="160"
         y="182"
         rx="1"
         ry="1" />
      <g
         id="g345"
         clip-path="url(#clipPath18368)"
         transform="translate(-197)">
        <path
           id="path339"
           style="fill:url(#linearGradient619);fill-opacity:1;stroke-width:3;stroke-linecap:round;stroke-opacity:0.130831;stop-color:#000000"
           d="m 64,262 c -17.673112,0 -32,5.59644 -32,12.5 v 5 c 0,6.90356 14.326888,12.5 32,12.5 17.673112,0 32,-5.59644 32,-12.5 v -5 C 96,267.59644 81.673112,262 64,262 Z"
           sodipodi:nodetypes="sccsccs" />
        <ellipse
           style="fill:#f6f5f4;fill-opacity:0.73459;stroke:none;stroke-width:3;stroke-linecap:round;stroke-dasharray:none;stroke-opacity:0.130831;stop-color:#000000"
           id="ellipse341"
           cx="64"
           cy="276"
           rx="32"
           ry="14" />
        <ellipse
           style="fill:#deddda;fill-opacity:1;stroke:none;stroke-width:3;stroke-linecap:round;stroke-dasharray:none;stroke-opacity:0.130831;stop-color:#000000"
           id="ellipse343"
           cx="64"
           cy="274"
           rx="32"
           ry="14" />
      </g>
      <rect
         style="fill:#c0bfbc;fill-opacity:1;stroke:none;stroke-width:3;stroke-linecap:round;stroke-dasharray:none;stroke-opacity:0.130831;stop-color:#000000"
         id="rect347"
         width="8"
         height="56"
         x="-137"
         y="220"
         rx="4"
         ry="4" />
      <rect
         style="fill:#dddcd9;fill-opacity:1;stroke:none;stroke-width:1;stroke-linecap:round;stroke-dasharray:none;stroke-opacity:0.130831;stop-color:#000000"
         id="rect349"
         width="2.1322479"
         height="30.281244"
         x="-135.07547"
         y="242.75052"
         rx="1.066123"
         ry="1.066123" />
      <path
         style="fill:#000000;fill-opacity:0.188469;stroke:none;stroke-width:1px;stroke-linecap:butt;stroke-linejoin:miter;stroke-opacity:1"
         d="m -137,252 v -7 h 8 v 3 c -2,-2 -6.28807,-0.7443 -8,4 z"
         id="path351"
         sodipodi:nodetypes="ccccc" />
      <g
         id="g517"
         clip-path="url(#clipPath11559)"
         transform="translate(-197)">
        <rect
           style="fill:#b5835a;fill-opacity:1;stroke:none;stroke-width:10.5394;stroke-opacity:0.130831;stop-color:#000000"
           id="rect353"
           width="103.91395"
           height="56"
           x="12.086052"
           y="188"
           rx="8.5495014"
           ry="8.5495014" />
        <g
           id="g367"
           style="opacity:0.394057">
          <rect
             style="display:inline;fill:none;fill-opacity:0.184517;stroke:#986a44;stroke-width:2;stroke-linecap:round;stroke-dasharray:none;stroke-opacity:1;enable-background:new;stop-color:#000000"
             id="rect355"
             width="8"
             height="22"
             x="41"
             y="204"
             rx="4"
             ry="4" />
          <rect
             style="display:inline;opacity:0.574847;fill:none;fill-opacity:0.184517;stroke:#986a44;stroke-width:1.99999;stroke-linecap:round;stroke-dasharray:none;stroke-opacity:1;enable-background:new;stop-color:#000000"
             id="rect357"
             width="24.055241"
             height="50.562504"
             x="30.944759"
             y="193.44012"
             rx="12.02762"
             ry="12.02762" />
          <rect
             style="display:inline;opacity:0.440137;fill:none;fill-opacity:0.184517;stroke:#986a44;stroke-width:1.99999;stroke-linecap:round;stroke-dasharray:none;stroke-opacity:1;enable-background:new;stop-color:#000000"
             id="rect359"
             width="41.950279"
             height="60.000031"
             x="17.049721"
             y="184.99997"
             rx="14.000004"
             ry="14.210542" />
          <path
             style="font-variation-settings:normal;display:inline;opacity:0.575419;vector-effect:none;fill:none;fill-opacity:0.184517;stroke:#986a44;stroke-width:1.99999;stroke-linecap:round;stroke-linejoin:miter;stroke-miterlimit:4;stroke-dasharray:none;stroke-dashoffset:0;stroke-opacity:1;-inkscape-stroke:none;enable-background:new;stop-color:#000000"
             d="m 55.036648,174 5.527864,11.05573 A 42.36068,42.36068 76.717474 0 1 65.036648,204 v 12 a 7,7 45 0 0 7,7 h 2.971099 a 7,7 135 0 0 7,-7 v -12 a 21.750922,21.750922 115.13511 0 1 7.071068,-15.07107 L 90.007747,188 v -7.50504"
             id="path361"
             sodipodi:nodetypes="cccccccc"
             inkscape:path-effect="#path-effect539"
             inkscape:original-d="m 55.036648,174 10,20 v 29 h 16.971099 v -19 -8 l 8,-8 v -7.50504" />
          <rect
             style="display:inline;fill:none;fill-opacity:0.184517;stroke:#986a44;stroke-width:2;stroke-linecap:round;stroke-dasharray:none;stroke-opacity:1;enable-background:new;stop-color:#000000"
             id="rect363"
             width="6"
             height="22"
             x="69"
             y="191"
             rx="3"
             ry="3" />
          <path
             style="font-variation-settings:normal;display:inline;opacity:0.36921;vector-effect:none;fill:none;fill-opacity:0.184517;stroke:#986a44;stroke-width:1.99999;stroke-linecap:round;stroke-linejoin:miter;stroke-miterlimit:4;stroke-dasharray:none;stroke-dashoffset:0;stroke-opacity:1;-inkscape-stroke:none;enable-background:new;stop-color:#000000"
             d="m 63,222 a 10.049876,10.049876 39.289407 0 0 11,9 l 7.898891,0 a 11,11 135 0 0 11,-11 V 207.25332 A 10.253317,10.253317 135 0 1 103.15221,197 10.0526,10.0526 46.155743 0 1 113,207.25332 V 239"
             id="path365"
             inkscape:path-effect="#path-effect543"
             inkscape:original-d="m 63,222 v 9 H 92.898891 V 197 H 113 v 42"
             sodipodi:nodetypes="cccccc" />
        </g>
        <g
           id="g473"
           style="opacity:0.0910017;mix-blend-mode:normal">
          <path
             style="display:inline;opacity:1;fill:none;stroke:#cdab8f;stroke-width:2;stroke-linecap:round;stroke-linejoin:miter;stroke-dasharray:none;stroke-opacity:1;enable-background:new"
             d="m 13.028587,187.00077 v 27.86905"
             id="path369"
             sodipodi:nodetypes="cc" />
          <path
             style="display:inline;opacity:1;fill:none;stroke:#cdab8f;stroke-width:2;stroke-linecap:round;stroke-linejoin:miter;stroke-dasharray:none;stroke-opacity:1;enable-background:new"
             d="m 17,187.00077 v 33.807"
             id="path371"
             sodipodi:nodetypes="cc" />
          <path
             style="display:inline;opacity:1;fill:none;stroke:#cdab8f;stroke-width:2;stroke-linecap:round;stroke-linejoin:miter;stroke-dasharray:none;stroke-opacity:1;enable-background:new"
             d="m 21,187.00077 v 27.86905"
             id="path373"
             sodipodi:nodetypes="cc" />
          <path
             style="display:inline;opacity:1;fill:none;stroke:#cdab8f;stroke-width:2;stroke-linecap:round;stroke-linejoin:miter;stroke-dasharray:none;stroke-opacity:1;enable-background:new"
             d="m 25,187.00077 v 17.72781"
             id="path375"
             sodipodi:nodetypes="cc" />
          <path
             style="display:inline;opacity:1;fill:none;stroke:#cdab8f;stroke-width:2;stroke-linecap:round;stroke-linejoin:miter;stroke-dasharray:none;stroke-opacity:1;enable-background:new"
             d="m 29,187.00077 v 27.86905"
             id="path377"
             sodipodi:nodetypes="cc" />
          <path
             style="display:inline;opacity:1;fill:none;stroke:#cdab8f;stroke-width:2;stroke-linecap:round;stroke-linejoin:miter;stroke-dasharray:none;stroke-opacity:1;enable-background:new"
             d="m 33,187.00077 v 37.89134"
             id="path379"
             sodipodi:nodetypes="cc" />
          <path
             style="display:inline;opacity:1;fill:none;stroke:#cdab8f;stroke-width:2;stroke-linecap:round;stroke-linejoin:miter;stroke-dasharray:none;stroke-opacity:1;enable-background:new"
             d="m 37,187.00077 v 33.90621"
             id="path381"
             sodipodi:nodetypes="cc" />
          <path
             style="display:inline;opacity:1;fill:none;stroke:#cdab8f;stroke-width:2;stroke-linecap:round;stroke-linejoin:miter;stroke-dasharray:none;stroke-opacity:1;enable-background:new"
             d="m 41,187.00077 v 18.69714"
             id="path383"
             sodipodi:nodetypes="cc" />
          <path
             style="display:inline;opacity:1;fill:none;stroke:#cdab8f;stroke-width:2;stroke-linecap:round;stroke-linejoin:miter;stroke-dasharray:none;stroke-opacity:1;enable-background:new"
             d="m 45,187.00077 v 31.78888"
             id="path385"
             sodipodi:nodetypes="cc" />
          <path
             style="display:inline;opacity:1;fill:none;stroke:#cdab8f;stroke-width:2;stroke-linecap:round;stroke-linejoin:miter;stroke-dasharray:none;stroke-opacity:1;enable-background:new"
             d="m 49,187.00077 v 27.86905"
             id="path387"
             sodipodi:nodetypes="cc" />
          <path
             style="display:inline;opacity:1;fill:none;stroke:#cdab8f;stroke-width:2;stroke-linecap:round;stroke-linejoin:miter;stroke-dasharray:none;stroke-opacity:1;enable-background:new"
             d="m 53,187.00077 v 33.9872"
             id="path389"
             sodipodi:nodetypes="cc" />
          <path
             style="display:inline;opacity:1;fill:none;stroke:#cdab8f;stroke-width:2;stroke-linecap:round;stroke-linejoin:miter;stroke-dasharray:none;stroke-opacity:1;enable-background:new"
             d="m 57,187.00077 v 27.86905"
             id="path391"
             sodipodi:nodetypes="cc" />
          <path
             style="display:inline;opacity:1;fill:none;stroke:#cdab8f;stroke-width:2;stroke-linecap:round;stroke-linejoin:miter;stroke-dasharray:none;stroke-opacity:1;enable-background:new"
             d="M 61,187.00077 V 208.984"
             id="path393"
             sodipodi:nodetypes="cc" />
          <path
             style="display:inline;opacity:1;fill:none;stroke:#cdab8f;stroke-width:2;stroke-linecap:round;stroke-linejoin:miter;stroke-dasharray:none;stroke-opacity:1;enable-background:new"
             d="m 65,187.00077 v 27.86905"
             id="path395"
             sodipodi:nodetypes="cc" />
          <path
             style="display:inline;opacity:1;fill:none;stroke:#cdab8f;stroke-width:2;stroke-linecap:round;stroke-linejoin:miter;stroke-dasharray:none;stroke-opacity:1;enable-background:new"
             d="m 69,187.00077 v 33.90976"
             id="path397"
             sodipodi:nodetypes="cc" />
          <path
             style="display:inline;opacity:1;fill:none;stroke:#cdab8f;stroke-width:2;stroke-linecap:round;stroke-linejoin:miter;stroke-dasharray:none;stroke-opacity:1;enable-background:new"
             d="m 73,187.00077 v 27.86905"
             id="path399"
             sodipodi:nodetypes="cc" />
          <path
             style="display:inline;opacity:1;fill:none;stroke:#cdab8f;stroke-width:2;stroke-linecap:round;stroke-linejoin:miter;stroke-dasharray:none;stroke-opacity:1;enable-background:new"
             d="m 77,187.00077 v 30.30578"
             id="path401"
             sodipodi:nodetypes="cc" />
          <path
             style="display:inline;opacity:1;fill:none;stroke:#cdab8f;stroke-width:2;stroke-linecap:round;stroke-linejoin:miter;stroke-dasharray:none;stroke-opacity:1;enable-background:new"
             d="m 81,187.00077 v 27.86905"
             id="path403"
             sodipodi:nodetypes="cc" />
          <path
             style="display:inline;opacity:1;fill:none;stroke:#cdab8f;stroke-width:2;stroke-linecap:round;stroke-linejoin:miter;stroke-dasharray:none;stroke-opacity:1;enable-background:new"
             d="m 85,187.00077 v 26.37887"
             id="path405"
             sodipodi:nodetypes="cc" />
          <path
             style="display:inline;opacity:1;fill:none;stroke:#cdab8f;stroke-width:2;stroke-linecap:round;stroke-linejoin:miter;stroke-dasharray:none;stroke-opacity:1;enable-background:new"
             d="m 89,187.00077 v 27.86905"
             id="path407"
             sodipodi:nodetypes="cc" />
          <path
             style="display:inline;opacity:1;fill:none;stroke:#cdab8f;stroke-width:2;stroke-linecap:round;stroke-linejoin:miter;stroke-dasharray:none;stroke-opacity:1;enable-background:new"
             d="m 93,187.00077 v 26.37887"
             id="path409"
             sodipodi:nodetypes="cc" />
          <path
             style="display:inline;opacity:1;fill:none;stroke:#cdab8f;stroke-width:2;stroke-linecap:round;stroke-linejoin:miter;stroke-dasharray:none;stroke-opacity:1;enable-background:new"
             d="m 97,187.00077 v 33.87281"
             id="path411"
             sodipodi:nodetypes="cc" />
          <path
             style="display:inline;opacity:1;fill:none;stroke:#cdab8f;stroke-width:2;stroke-linecap:round;stroke-linejoin:miter;stroke-dasharray:none;stroke-opacity:1;enable-background:new"
             d="m 101,187.00077 v 27.86905"
             id="path413"
             sodipodi:nodetypes="cc" />
          <path
             style="display:inline;opacity:1;fill:none;stroke:#cdab8f;stroke-width:2;stroke-linecap:round;stroke-linejoin:miter;stroke-dasharray:none;stroke-opacity:1;enable-background:new"
             d="m 105,187.00077 v 26.37887"
             id="path415"
             sodipodi:nodetypes="cc" />
          <path
             style="display:inline;opacity:1;fill:none;stroke:#cdab8f;stroke-width:2;stroke-linecap:round;stroke-linejoin:miter;stroke-dasharray:none;stroke-opacity:1;enable-background:new"
             d="m 109,187.00077 v 33.87281"
             id="path417"
             sodipodi:nodetypes="cc" />
          <path
             style="display:inline;opacity:1;fill:none;stroke:#cdab8f;stroke-width:2;stroke-linecap:round;stroke-linejoin:miter;stroke-dasharray:none;stroke-opacity:1;enable-background:new"
             d="m 113,187.00077 v 27.86905"
             id="path419"
             sodipodi:nodetypes="cc" />
          <path
             style="display:inline;opacity:1;fill:none;stroke:#cdab8f;stroke-width:2;stroke-linecap:round;stroke-linejoin:miter;stroke-dasharray:none;stroke-opacity:1;enable-background:new"
             d="M 13.028587,219.13095 V 247"
             id="path421"
             sodipodi:nodetypes="cc" />
          <path
             style="display:inline;opacity:1;fill:none;stroke:#cdab8f;stroke-width:2;stroke-linecap:round;stroke-linejoin:miter;stroke-dasharray:none;stroke-opacity:1;enable-background:new"
             d="M 17,225.0689 V 247"
             id="path423"
             sodipodi:nodetypes="cc" />
          <path
             style="display:inline;opacity:1;fill:none;stroke:#cdab8f;stroke-width:2;stroke-linecap:round;stroke-linejoin:miter;stroke-dasharray:none;stroke-opacity:1;enable-background:new"
             d="M 21,219.13095 V 247"
             id="path425"
             sodipodi:nodetypes="cc" />
          <path
             style="display:inline;opacity:1;fill:none;stroke:#cdab8f;stroke-width:2;stroke-linecap:round;stroke-linejoin:miter;stroke-dasharray:none;stroke-opacity:1;enable-background:new"
             d="M 25,208.98971 V 247"
             id="path427"
             sodipodi:nodetypes="cc" />
          <path
             style="display:inline;opacity:1;fill:none;stroke:#cdab8f;stroke-width:2;stroke-linecap:round;stroke-linejoin:miter;stroke-dasharray:none;stroke-opacity:1;enable-background:new"
             d="M 29,219.13095 V 247"
             id="path429"
             sodipodi:nodetypes="cc" />
          <path
             style="display:inline;opacity:1;fill:none;stroke:#cdab8f;stroke-width:2;stroke-linecap:round;stroke-linejoin:miter;stroke-dasharray:none;stroke-opacity:1;enable-background:new"
             d="M 33,229.15324 V 247"
             id="path431"
             sodipodi:nodetypes="cc" />
          <path
             style="display:inline;opacity:1;fill:none;stroke:#cdab8f;stroke-width:2;stroke-linecap:round;stroke-linejoin:miter;stroke-dasharray:none;stroke-opacity:1;enable-background:new"
             d="M 37,225.16811 V 247"
             id="path433"
             sodipodi:nodetypes="cc" />
          <path
             style="display:inline;opacity:1;fill:none;stroke:#cdab8f;stroke-width:2;stroke-linecap:round;stroke-linejoin:miter;stroke-dasharray:none;stroke-opacity:1;enable-background:new"
             d="M 41,209.95904 V 247"
             id="path435"
             sodipodi:nodetypes="cc" />
          <path
             style="display:inline;opacity:1;fill:none;stroke:#cdab8f;stroke-width:2;stroke-linecap:round;stroke-linejoin:miter;stroke-dasharray:none;stroke-opacity:1;enable-background:new"
             d="M 45,223.05078 V 247"
             id="path437"
             sodipodi:nodetypes="cc" />
          <path
             style="display:inline;opacity:1;fill:none;stroke:#cdab8f;stroke-width:2;stroke-linecap:round;stroke-linejoin:miter;stroke-dasharray:none;stroke-opacity:1;enable-background:new"
             d="M 49,219.13095 V 247"
             id="path439"
             sodipodi:nodetypes="cc" />
          <path
             style="display:inline;opacity:1;fill:none;stroke:#cdab8f;stroke-width:2;stroke-linecap:round;stroke-linejoin:miter;stroke-dasharray:none;stroke-opacity:1;enable-background:new"
             d="M 53,225.2491 V 247"
             id="path441"
             sodipodi:nodetypes="cc" />
          <path
             style="display:inline;opacity:1;fill:none;stroke:#cdab8f;stroke-width:2;stroke-linecap:round;stroke-linejoin:miter;stroke-dasharray:none;stroke-opacity:1;enable-background:new"
             d="M 57,219.13095 V 247"
             id="path443"
             sodipodi:nodetypes="cc" />
          <path
             style="display:inline;opacity:1;fill:none;stroke:#cdab8f;stroke-width:2;stroke-linecap:round;stroke-linejoin:miter;stroke-dasharray:none;stroke-opacity:1;enable-background:new"
             d="M 61,213.24513 V 247"
             id="path445"
             sodipodi:nodetypes="cc" />
          <path
             style="display:inline;opacity:1;fill:none;stroke:#cdab8f;stroke-width:2;stroke-linecap:round;stroke-linejoin:miter;stroke-dasharray:none;stroke-opacity:1;enable-background:new"
             d="M 65,219.13095 V 247"
             id="path447"
             sodipodi:nodetypes="cc" />
          <path
             style="display:inline;opacity:1;fill:none;stroke:#cdab8f;stroke-width:2;stroke-linecap:round;stroke-linejoin:miter;stroke-dasharray:none;stroke-opacity:1;enable-background:new"
             d="M 69,225.17166 V 247"
             id="path449"
             sodipodi:nodetypes="cc" />
          <path
             style="display:inline;opacity:1;fill:none;stroke:#cdab8f;stroke-width:2;stroke-linecap:round;stroke-linejoin:miter;stroke-dasharray:none;stroke-opacity:1;enable-background:new"
             d="M 73,219.13095 V 247"
             id="path451"
             sodipodi:nodetypes="cc" />
          <path
             style="display:inline;opacity:1;fill:none;stroke:#cdab8f;stroke-width:2;stroke-linecap:round;stroke-linejoin:miter;stroke-dasharray:none;stroke-opacity:1;enable-background:new"
             d="M 77,221.56768 V 247"
             id="path453"
             sodipodi:nodetypes="cc" />
          <path
             style="display:inline;opacity:1;fill:none;stroke:#cdab8f;stroke-width:2;stroke-linecap:round;stroke-linejoin:miter;stroke-dasharray:none;stroke-opacity:1;enable-background:new"
             d="M 81,219.13095 V 247"
             id="path455"
             sodipodi:nodetypes="cc" />
          <path
             style="display:inline;opacity:1;fill:none;stroke:#cdab8f;stroke-width:2;stroke-linecap:round;stroke-linejoin:miter;stroke-dasharray:none;stroke-opacity:1;enable-background:new"
             d="M 85,217.64077 V 247"
             id="path457"
             sodipodi:nodetypes="cc" />
          <path
             style="display:inline;opacity:1;fill:none;stroke:#cdab8f;stroke-width:2;stroke-linecap:round;stroke-linejoin:miter;stroke-dasharray:none;stroke-opacity:1;enable-background:new"
             d="M 89,219.13095 V 247"
             id="path459"
             sodipodi:nodetypes="cc" />
          <path
             style="display:inline;opacity:1;fill:none;stroke:#cdab8f;stroke-width:2;stroke-linecap:round;stroke-linejoin:miter;stroke-dasharray:none;stroke-opacity:1;enable-background:new"
             d="M 93,217.64077 V 247"
             id="path461"
             sodipodi:nodetypes="cc" />
          <path
             style="display:inline;opacity:1;fill:none;stroke:#cdab8f;stroke-width:2;stroke-linecap:round;stroke-linejoin:miter;stroke-dasharray:none;stroke-opacity:1;enable-background:new"
             d="M 97,225.13471 V 247"
             id="path463"
             sodipodi:nodetypes="cc" />
          <path
             style="display:inline;opacity:1;fill:none;stroke:#cdab8f;stroke-width:2;stroke-linecap:round;stroke-linejoin:miter;stroke-dasharray:none;stroke-opacity:1;enable-background:new"
             d="M 101,219.13095 V 247"
             id="path465"
             sodipodi:nodetypes="cc" />
          <path
             style="display:inline;opacity:1;fill:none;stroke:#cdab8f;stroke-width:2;stroke-linecap:round;stroke-linejoin:miter;stroke-dasharray:none;stroke-opacity:1;enable-background:new"
             d="M 105,217.64077 V 247"
             id="path467"
             sodipodi:nodetypes="cc" />
          <path
             style="display:inline;opacity:1;fill:none;stroke:#cdab8f;stroke-width:2;stroke-linecap:round;stroke-linejoin:miter;stroke-dasharray:none;stroke-opacity:1;enable-background:new"
             d="M 109,225.13471 V 247"
             id="path469"
             sodipodi:nodetypes="cc" />
          <path
             style="display:inline;opacity:1;fill:none;stroke:#cdab8f;stroke-width:2;stroke-linecap:round;stroke-linejoin:miter;stroke-dasharray:none;stroke-opacity:1;enable-background:new"
             d="M 113,219.13095 V 247"
             id="path471"
             sodipodi:nodetypes="cc" />
        </g>
        <path
           id="path475"
           style="fill:url(#linearGradient617);fill-opacity:1;stroke:none;stroke-width:10.5394;stroke-opacity:0.130831;stop-color:#000000"
           d="m 10,236 v 2 c 0,4.73642 3.771394,8 8.507813,8 H 109.40089 C 114.13731,246 118,242.73642 118,238 v -2 c -35.996658,-0.0805 -72.00346,0.12276 -108,0 z"
           sodipodi:nodetypes="csssscc"
           inkscape:path-effect="#path-effect547"
           inkscape:original-d="m 10,236 v 2 c 0,4.73642 3.771394,8 8.507813,8 H 109.40089 C 114.13731,246 118,242.73642 118,238 v -2 c -35.996658,-0.0805 -72.00346,0.12276 -108,0 z" />
        <path
           id="path477"
           style="fill:#986a44;fill-opacity:1;stroke:none;stroke-width:10.5394;stroke-opacity:0.130831;stop-color:#000000"
           d="m 10,236.00264 c 0,4.73642 3.771394,8 8.507813,8 h 90.893077 c 4.73642,0 8.59911,-3.26358 8.59911,-8 v 0 c 0,-1.10457 -0.89543,-2.00203 -1.99999,-2.00418 -34.6638,-0.0676 -69.336655,0.11746 -104.000343,0.0107 C 10.895281,234.00573 10,234.89806 10,236.00264 Z"
           sodipodi:nodetypes="csssscc"
           inkscape:path-effect="#path-effect551"
           inkscape:original-d="m 10,234.00264 v 2 c 0,4.73642 3.771394,8 8.507813,8 h 90.893077 c 4.73642,0 8.59911,-3.26358 8.59911,-8 v -2 c -35.996658,-0.0805 -72.00346,0.12276 -108,0 z" />
        <path
           style="fill:none;stroke:#b5835a;stroke-width:4;stroke-linecap:round;stroke-linejoin:miter;stroke-dasharray:none;stroke-opacity:1"
           d="M 14.050557,236 H 113.99455"
           id="path479" />
        <path
           style="display:inline;fill:#77767b;fill-opacity:1;stroke:none;stroke-width:0.5;stroke-linejoin:round;stroke-miterlimit:4;stroke-dasharray:none;stroke-opacity:1;enable-background:new"
           clip-path="none"
           d="M 44.714301,198 H 62 l 10,10 -0.12787,25.27821 C 71.864524,234.78191 70.646565,236 69.142851,236 H 44.714284 C 43.210571,236 42,234.78942 42,233.28571 V 200.71429 C 42,199.21057 43.210571,198 44.714284,198 Z"
           id="path481"
           inkscape:connector-curvature="0"
           sodipodi:nodetypes="sccsssssss" />
        <path
           style="display:inline;fill:#c0bfbc;fill-opacity:1;stroke:none;stroke-width:0.5;stroke-linejoin:round;stroke-miterlimit:4;stroke-dasharray:none;stroke-opacity:1;enable-background:new"
           clip-path="none"
           d="M 46.714301,198 H 64 l 10,10 -0.12787,25.27821 C 73.864524,234.78191 72.646565,236 71.142851,236 H 46.714284 C 45.210571,236 44,234.78942 44,233.28571 V 200.71429 C 44,199.21057 45.210571,198 46.714284,198 Z"
           id="path483"
           inkscape:connector-curvature="0"
           sodipodi:nodetypes="sccsssssss" />
        <path
           style="display:inline;fill:#deddda;fill-opacity:1;stroke:none;stroke-width:0.5;stroke-linejoin:round;stroke-miterlimit:4;stroke-dasharray:none;stroke-opacity:1;enable-background:new"
           clip-path="none"
           d="M 48.714301,198 H 66 l 10,10 -0.12787,25.27821 C 75.864524,234.78191 74.646565,236 73.142851,236 H 48.714284 C 47.210571,236 46,234.78942 46,233.28571 V 200.71429 C 46,199.21057 47.210571,198 48.714284,198 Z"
           id="path485"
           inkscape:connector-curvature="0"
           sodipodi:nodetypes="sccsssssss" />
        <g
           id="g513"
           transform="matrix(0.08482141,0,0,0.08482141,40.924909,203.81027)"
           style="display:inline;stroke-width:11.7894;enable-background:new">
          <path
             style="display:inline;fill:#f6f5f4;fill-opacity:1;stroke:none;stroke-width:5.89474;stroke-linejoin:round;stroke-miterlimit:4;stroke-dasharray:none;stroke-opacity:1;enable-background:new"
             clip-path="none"
             d="m 115.41181,-68.5 203.78933,-4e-5 117.89477,117.894762 -1.50752,298.016888 C 435.49871,365.13938 421.13961,379.5 403.41161,379.5 h -288 c -17.727996,0 -31.999996,-14.272 -31.999996,-32 v -384 c 0,-17.728 14.272,-32 31.999996,-32 z"
             id="path487"
             inkscape:connector-curvature="0"
             sodipodi:nodetypes="sccsssssss" />
          <path
             inkscape:connector-curvature="0"
             style="display:inline;vector-effect:none;fill:#deddda;fill-opacity:1;stroke:none;stroke-width:5.89474;stroke-linecap:butt;stroke-linejoin:round;stroke-miterlimit:4;stroke-dasharray:none;stroke-dashoffset:0;stroke-opacity:1;enable-background:new"
             d="m 319.20114,-68.50004 v 86.677347 c 0,17.461536 13.98671,31.217415 31.1557,31.217415 h 86.73907 z"
             id="path489"
             sodipodi:nodetypes="csccc" />
          <g
             transform="matrix(1.2196012,0,0,1.2409973,-2107.8052,-2446.2508)"
             id="g511"
             style="display:inline;stroke-width:2.39574;enable-background:new">
            <rect
               style="display:inline;opacity:1;fill:#d5d3cf;fill-opacity:1;stroke:none;stroke-width:2.39574;stroke-linejoin:round;stroke-miterlimit:4;stroke-dasharray:none;stroke-opacity:1;enable-background:new"
               id="rect491"
               width="8"
               height="152"
               x="1816"
               y="2068" />
            <rect
               y="-2067.3333"
               x="2211.6943"
               height="251.3336"
               width="8.3055849"
               id="rect493"
               style="display:inline;opacity:1;fill:#d5d3cf;fill-opacity:1;stroke:none;stroke-width:2.39574;stroke-linejoin:round;stroke-miterlimit:4;stroke-dasharray:none;stroke-opacity:1;enable-background:new"
               transform="rotate(90)" />
            <rect
               y="2124"
               x="1835.75"
               height="76.999992"
               width="18.916653"
               id="rect495"
               style="display:inline;opacity:1;fill:#50db81;fill-opacity:1;stroke:none;stroke-width:2.39574;stroke-linejoin:round;stroke-miterlimit:4;stroke-dasharray:none;stroke-opacity:1;enable-background:new" />
            <rect
               style="display:inline;opacity:1;fill:#8f5aa0;fill-opacity:1;stroke:none;stroke-width:2.39574;stroke-linejoin:round;stroke-miterlimit:4;stroke-dasharray:none;stroke-opacity:1;enable-background:new"
               id="rect497"
               width="19.333273"
               height="48"
               x="1864.3334"
               y="2153" />
            <rect
               y="2087"
               x="1893.3333"
               height="114.00002"
               width="18.661621"
               id="rect499"
               style="display:inline;opacity:1;fill:#fb8c14;fill-opacity:1;stroke:none;stroke-width:2.39574;stroke-linejoin:round;stroke-miterlimit:4;stroke-dasharray:none;stroke-opacity:1;enable-background:new" />
            <rect
               y="2106"
               x="1922.3334"
               height="95.000015"
               width="19.333263"
               id="rect501"
               style="display:inline;opacity:1;fill:#e01b24;fill-opacity:1;stroke:none;stroke-width:2.39574;stroke-linejoin:round;stroke-miterlimit:4;stroke-dasharray:none;stroke-opacity:1;enable-background:new" />
            <rect
               y="2144"
               x="1951.3333"
               height="57.000015"
               width="19.333382"
               id="rect503"
               style="display:inline;opacity:1;fill:#8f5aa0;fill-opacity:1;stroke:none;stroke-width:2.39574;stroke-linejoin:round;stroke-miterlimit:4;stroke-dasharray:none;stroke-opacity:1;enable-background:new" />
            <rect
               style="display:inline;opacity:1;fill:#4a86cf;fill-opacity:1;stroke:none;stroke-width:2.39574;stroke-linejoin:round;stroke-miterlimit:4;stroke-dasharray:none;stroke-opacity:1;enable-background:new"
               id="rect505"
               width="19.333376"
               height="28.500013"
               x="1980.3333"
               y="2172.5" />
            <rect
               y="2125"
               x="2009.3333"
               height="76.000015"
               width="19.33337"
               id="rect507"
               style="display:inline;opacity:1;fill:#f6d32d;fill-opacity:1;stroke:none;stroke-width:2.39574;stroke-linejoin:round;stroke-miterlimit:4;stroke-dasharray:none;stroke-opacity:1;enable-background:new" />
            <rect
               y="2172.5"
               x="2038.3333"
               height="28.500029"
               width="19.33337"
               id="rect509"
               style="display:inline;opacity:1;fill:#f66151;fill-opacity:1;stroke:none;stroke-width:2.39574;stroke-linejoin:round;stroke-miterlimit:4;stroke-dasharray:none;stroke-opacity:1;enable-background:new" />
          </g>
        </g>
        <path
           style="fill:none;stroke:#cdab8f;stroke-width:2;stroke-linecap:round;stroke-linejoin:miter;stroke-dasharray:none;stroke-opacity:1"
           d="M 14.050557,235.06069 H 113.99455"
           id="path515" />
      </g>
      <g
         id="g535"
         transform="translate(-197,-6)">
        <ellipse
           style="display:inline;opacity:0.811384;mix-blend-mode:normal;fill:url(#linearGradient611);fill-opacity:1;stroke:none;stroke-width:8;stroke-opacity:0.130831;enable-background:new;stop-color:#000000"
           id="ellipse519"
           cx="23"
           cy="203"
           rx="6"
           ry="4" />
        <ellipse
           style="display:inline;opacity:0.811384;mix-blend-mode:normal;fill:#deddda;fill-opacity:1;stroke:none;stroke-width:8;stroke-opacity:0.130831;enable-background:new;stop-color:#000000"
           id="ellipse521"
           cx="23"
           cy="202"
           rx="6"
           ry="4" />
        <path
           style="fill:none;stroke:#c0bfbc;stroke-width:2;stroke-linecap:round;stroke-linejoin:miter;stroke-dasharray:none;stroke-opacity:1"
           d="M 41,181 H 29 a 6,6 135 0 0 -6,6 v 15.05451"
           id="path523"
           inkscape:path-effect="#path-effect555"
           inkscape:original-d="M 41,181 H 23 v 21.05451"
           sodipodi:nodetypes="ccc" />
        <g
           id="g533"
           clip-path="url(#clipPath5255)"
           transform="translate(0,2.2105255)">
          <rect
             style="fill:url(#linearGradient613);fill-opacity:1;stroke:none;stroke-width:2;stroke-linecap:round;stroke-dasharray:none;stroke-opacity:0.130831;stop-color:#000000"
             id="rect525"
             width="29"
             height="14"
             x="39"
             y="173"
             rx="0"
             ry="0" />
          <rect
             style="fill:url(#linearGradient615);fill-opacity:1;stroke:none;stroke-width:2;stroke-linecap:round;stroke-dasharray:none;stroke-opacity:0.130831;stop-color:#000000"
             id="rect527"
             width="16"
             height="13"
             x="52"
             y="174" />
          <path
             id="path529"
             style="fill:#ffffff;fill-opacity:0.184517;stroke-width:2;stroke-linecap:round;stroke-opacity:0.130831;stop-color:#000000"
             d="m 63,178 c 0.554,0 1,0.446 1,1 v 5 c 0,0.554 -0.446,1 -1,1 -0.554,0 -1,-0.446 -1,-1 v -5 c 0,-0.554 0.446,-1 1,-1 z m -3,0 c 0.554,0 1,0.446 1,1 v 5 c 0,0.554 -0.446,1 -1,1 -0.554,0 -1,-0.446 -1,-1 v -5 c 0,-0.554 0.446,-1 1,-1 z m -3,0 c 0.554,0 1,0.446 1,1 v 5 c 0,0.554 -0.446,1 -1,1 -0.554,0 -1,-0.446 -1,-1 v -5 c 0,-0.554 0.446,-1 1,-1 z m -3,0 c 0.554,0 1,0.446 1,1 v 5 c 0,0.554 -0.446,1 -1,1 -0.554,0 -1,-0.446 -1,-1 v -5 c 0,-0.554 0.446,-1 1,-1 z" />
          <path
             id="path531"
             style="stroke-width:2;stroke-linecap:round;stroke-opacity:0.130831;stop-color:#000000"
             d="m 63,179 c 0.554,0 1,0.446 1,1 v 5 c 0,0.554 -0.446,1 -1,1 -0.554,0 -1,-0.446 -1,-1 v -5 c 0,-0.554 0.446,-1 1,-1 z m -3,0 c 0.554,0 1,0.446 1,1 v 5 c 0,0.554 -0.446,1 -1,1 -0.554,0 -1,-0.446 -1,-1 v -5 c 0,-0.554 0.446,-1 1,-1 z m -3,0 c 0.554,0 1,0.446 1,1 v 5 c 0,0.554 -0.446,1 -1,1 -0.554,0 -1,-0.446 -1,-1 v -5 c 0,-0.554 0.446,-1 1,-1 z m -3,0 c 0.554,0 1,0.446 1,1 v 5 c 0,0.554 -0.446,1 -1,1 -0.554,0 -1,-0.446 -1,-1 v -5 c 0,-0.554 0.446,-1 1,-1 z" />
        </g>
      </g>
    </g>
    <g
       inkscape:groupmode="layer"
       id="layer3"
       inkscape:label="grid"
       style="display:inline"
       sodipodi:insensitive="true">
      <circle
         cx="64.000031"
         cy="236"
         r="59.504131"
         id="circle2892"
         style="display:inline;opacity:0.1;vector-effect:none;fill:none;fill-opacity:1;stroke:#000000;stroke-width:0.99;stroke-linecap:butt;stroke-linejoin:miter;stroke-miterlimit:4;stroke-dasharray:0.99, 0.99;stroke-dashoffset:0;stroke-opacity:1;marker:none;marker-start:none;marker-mid:none;marker-end:none;paint-order:normal;enable-background:new" />
      <rect
         ry="7.9292889"
         rx="8.701004"
         y="180.49496"
         x="20.495007"
         height="111.01005"
         width="87.009987"
         id="rect2894"
         style="display:inline;opacity:0.1;vector-effect:none;fill:none;fill-opacity:1;stroke:#000000;stroke-width:0.99;stroke-linecap:butt;stroke-linejoin:miter;stroke-miterlimit:4;stroke-dasharray:0.99, 0.99;stroke-dashoffset:0;stroke-opacity:1;marker:none;marker-start:none;marker-mid:none;marker-end:none;paint-order:normal;enable-background:new" />
      <rect
         ry="7.9238095"
         rx="7.9238095"
         y="184.49524"
         x="12.495266"
         height="103.00952"
         width="103.00952"
         id="rect2896"
         style="display:inline;opacity:0.1;vector-effect:none;fill:none;fill-opacity:1;stroke:#000000;stroke-width:0.99;stroke-linecap:butt;stroke-linejoin:miter;stroke-miterlimit:4;stroke-dasharray:0.99, 0.99;stroke-dashoffset:0;stroke-opacity:1;marker:none;marker-start:none;marker-mid:none;marker-end:none;paint-order:normal;enable-background:new" />
      <rect
         ry="8.701005"
         rx="7.9292889"
         y="200.49496"
         x="8.4950066"
         height="87.010048"
         width="111.01004"
         id="rect2898"
         style="display:inline;opacity:0.1;vector-effect:none;fill:none;fill-opacity:1;stroke:#000000;stroke-width:0.99;stroke-linecap:butt;stroke-linejoin:miter;stroke-miterlimit:4;stroke-dasharray:0.99, 0.99;stroke-dashoffset:0;stroke-opacity:1;marker:none;marker-start:none;marker-mid:none;marker-end:none;paint-order:normal;enable-background:new" />
      <path
         inkscape:connector-curvature="0"
         id="path2900"
         d="M 2.6203015e-5,288.99999 H 128.00003"
         style="display:inline;fill:none;stroke:#62a0ea;stroke-width:2;stroke-linecap:butt;stroke-linejoin:miter;stroke-miterlimit:4;stroke-dasharray:none;stroke-opacity:1;enable-background:new" />
    </g>
  </g>
</svg>
